…
## Marker Table

Load marker isotopes and protein names. Make sure that marker names don't have `-` or start with a number. This is important to be compatible with the formula syntax of `R`.


```r
markers = read_csv("markers.csv")
markers$protein_name %<>% str_replace_all("-","_")
markers$protein_name %<>% make.names
markers
```

```
## # A tibble: 35 x 3
##    isotope      protein_name type     
##    <chr>        <chr>        <chr>    
##  1 Event_length Event_length none     
##  2 In113Di      CD235ab_CD61 phenotype
##  3 In115Di      CD45         phenotype
##  4 La139Di      CD66         phenotype
##  5 Pr141Di      CD7          phenotype
##  6 Nd142Di      CD19         phenotype
##  7 Nd143Di      CD45RA       phenotype
##  8 Nd144Di      CD11b        phenotype
##  9 Nd145Di      CD4          phenotype
## 10 Nd146Di      CD8a         phenotype
## # … with 25 more rows
```
…
