Group-specific fixed effects model — cytogroup • CytoGLMM
…
#>          NA   -1.102e-01   -1.820e-02   -8.430e-02   -3.744e-02   -1.059e-01  
#>      m07:X6       m07:X7       m07:X8       m08:X1       m08:X2       m08:X3  
#>  -3.105e-03   -1.263e-02           NA   -9.409e-02   -9.344e-02   -3.130e-02  
#>      m08:X4       m08:X5       m08:X6       m08:X7       m08:X8       m09:X1  
#>   3.927e-03   -4.415e-03   -5.756e-02   -6.987e-05           NA    6.399e-02  
#>      m09:X2       m09:X3       m09:X4       m09:X5       m09:X6       m09:X7  
#>  -5.561e-02   -3.413e-02   -4.475e-03   -7.922e-03   -1.096e-02   -1.039e-02  
#>      m09:X8       m10:X1       m10:X2       m10:X3       m10:X4       m10:X5  
#>          NA   -6.815e-02    2.977e-02   -4.956e-02   -3.438e-02   -1.950e-02  
#>      m10:X6       m10:X7       m10:X8  
#>   3.076e-02   -1.028e-01           NA  
#> 
#> 
#> $df_samples_subset
#> # A tibble: 16,000 × 20
#>    donor condition   m01   m02   m03   m04   m05   m06   m07   m08   m09   m10
#>    <fct> <fct>     <dbl> <dbl> <dbl> <dbl> <dbl> <dbl> <dbl> <dbl> <dbl> <dbl>
#>  1 1     treatment 0.390  3.93  3.84 1.94   1.94 1.94   3.11 3.18  1.14   3.44
#>  2 1     treatment 0      3.65  3.07 2.46   4.21 2.56   2.75 1.53  2.05   3.09
#>  3 1     treatment 0.199  1.75  3.04 4.29   2.35 1.61   1.14 1.02  2.70   4.70
#>  4 1     treatment 1.02   2.09  2.62 2.14   2.82 0.569  2.49 2.05  1.14   3.30
#>  5 1     treatment 1.99   2.49  1.82 4.02   2.19 0.733  1.44 0.881 2.56   2.05
#>  6 1     treatment 0.199  1.94  2.73 4.10   1.75 0.881  2.35 2.46  2.35   3.50
#>  7 1     treatment 2.27   4.27  1.44 1.25   5.29 2.14   2.35 2.59  1.25   2.35
#>  8 1     treatment 0.199  3.50  1.88 3.16   3.53 0.390  1.53 2.42  1.53   2.42
#>  9 1     treatment 0.390  2.27  2.96 1.68   2.39 1.94   3.02 4.35  2.42   4.50
#> 10 1     treatment 0.390  2.75  1.68 0.733  2.67 2.42   2.75 3.73  0.199  3.18
#> # … with 15,990 more rows, and 8 more variables: X1 <dbl>, X2 <dbl>, X3 <dbl>,
#> #   X4 <dbl>, X5 <dbl>, X6 <dbl>, X7 <dbl>, X8 <dbl>
…
