CytoGLMM Workflow • CytoGLMM
…
Introduction

Flow and mass cytometry are important modern immunology tools for measuring expression levels of multiple proteins on single cells. The goal is to better understand the mechanisms of responses on a single cell basis by studying differential expression of proteins. Most current data analysis tools compare expressions across many computationally discovered cell types. Our goal is to focus on just one cell type. Differential analysis of marker expressions can be difficult due to marker correlations and inter-subject heterogeneity, particularly for studies of human immunology. We address these challenges with two multiple regression strategies: A generalized linear mixed model (GLMM) and a bootstrapped generalized linear model (GLM). Here, we illustrate the CytoGLMM R package and workflow for simulated mass cytometry data.

Prepare Simulated Data

Generate data from a Poisson GLM with random effects.

library("CytoGLMM")
library("magrittr")
set.seed(23)
df = generate_data()
df

## # A tibble: 16,000 x 12
##    donor condition   m01   m02   m03   m04   m05   m06   m07   m08   m09   m10
##    <int> <fct>     <int> <int> <int> <int> <int> <int> <int> <int> <int> <int>
##  1     1 treatment     2   127   116    17    17    17    56    60     7    78
##  2     1 treatment     0    96    54    29   169    32    39    11    19    55
##  3     1 treatment     1    14    52   182    26    12     7     6    37   274
##  4     1 treatment     6    20    34    21    42     3    30    19     7    68
##  5     1 treatment    18    30    15   139    22     4    10     5    32    19
##  6     1 treatment     1    17    38   151    14     5    26    29    26    83
##  7     1 treatment    24   178    10     8   498    21    26    33     8    26
##  8     1 treatment     1    83    16    59    85     2    11    28    11    28
##  9     1 treatment     2    24    48    13    27    17    51   194    28   225
## 10     1 treatment     2    39    13     4    36    28    39   104     1    60
## # … with 15,990 more rows
…
