CytoGLMM Workflow for Pregnancy Dataset • CytoGLMM
…
fcs_files = list.files(path = "FR-FCM-ZY3Q/", pattern = "fcs")
map_time = function(x) {
  if (str_detect(x, "_2_")) "3rd trimester"
  else if (str_detect(x, "_1_")) "2st trimester"
  else if (str_detect(x, "_BL_")) "1st trimester"
  else NA
}
sample_table = tibble(
  donor = str_extract(fcs_files, "PTLG[0-9]{3}"),
  term = sapply(fcs_files, map_time) %>% as.factor,
  file_name = paste0("FR-FCM-ZY3Q/",fcs_files)
)
sample_table

## # A tibble: 48 x 3
##    donor   term          file_name                                
##    <chr>   <fct>         <chr>                                    
##  1 PTLG001 2st trimester FR-FCM-ZY3Q/Gates_PTLG001_1_IFNa_100.fcs 
##  2 PTLG001 3rd trimester FR-FCM-ZY3Q/Gates_PTLG001_2_IFNa_100.fcs 
##  3 PTLG001 1st trimester FR-FCM-ZY3Q/Gates_PTLG001_BL_IFNa_100.fcs
##  4 PTLG002 2st trimester FR-FCM-ZY3Q/Gates_PTLG002_1_IFNa_100.fcs 
##  5 PTLG002 3rd trimester FR-FCM-ZY3Q/Gates_PTLG002_2_IFNa_100.fcs 
##  6 PTLG002 1st trimester FR-FCM-ZY3Q/Gates_PTLG002_BL_IFNa_100.fcs
##  7 PTLG003 2st trimester FR-FCM-ZY3Q/Gates_PTLG003_1_IFNa_100.fcs 
##  8 PTLG003 3rd trimester FR-FCM-ZY3Q/Gates_PTLG003_2_IFNa_100.fcs 
##  9 PTLG003 1st trimester FR-FCM-ZY3Q/Gates_PTLG003_BL_IFNa_100.fcs
## 10 PTLG004 2st trimester FR-FCM-ZY3Q/Gates_PTLG004_1_IFNa_100.fcs 
## # … with 38 more rows

Marker Table

Load marker isotopes and protein names. Make sure that marker names don’t have - or start with a number. This is important to be compatible with the formula syntax of R.

markers = read_csv("markers.csv")
markers$protein_name %<>% str_replace_all("-","_")
markers$protein_name %<>% make.names
markers

## # A tibble: 35 x 3
##    isotope      protein_name type     
##    <chr>        <chr>        <chr>    
##  1 Event_length Event_length none     
##  2 In113Di      CD235ab_CD61 phenotype
##  3 In115Di      CD45         phenotype
##  4 La139Di      CD66         phenotype
##  5 Pr141Di      CD7          phenotype
##  6 Nd142Di      CD19         phenotype
##  7 Nd143Di      CD45RA       phenotype
##  8 Nd144Di      CD11b        phenotype
##  9 Nd145Di      CD4          phenotype
## 10 Nd146Di      CD8a         phenotype
## # … with 25 more rows
…
NK cell count. List the smallest and largest.

df_samples_subset %>% group_by(term,donor) %>% tally %>% arrange(n)

## # A tibble: 48 x 3
## # Groups:   term [3]
##    term          donor       n
##    <fct>         <chr>   <int>
##  1 2st trimester PTLG020  1759
##  2 3rd trimester PTLG024  2380
##  3 2st trimester PTLG024  2738
##  4 2st trimester PTLG001  2910
##  5 3rd trimester PTLG001  3125
##  6 3rd trimester PTLG020  3230
##  7 1st trimester PTLG020  3412
##  8 1st trimester PTLG001  3474
##  9 3rd trimester PTLG009  3764
## 10 2st trimester PTLG009  4004
## # … with 38 more rows

df_samples_subset %>% group_by(term,donor) %>% tally %>% arrange(desc(n))

## # A tibble: 48 x 3
## # Groups:   term [3]
##    term          donor       n
##    <fct>         <chr>   <int>
##  1 2st trimester PTLG008 13956
##  2 1st trimester PTLG008 13395
##  3 2st trimester PTLG029  9104
##  4 2st trimester PTLG002  9037
##  5 1st trimester PTLG022  8222
##  6 1st trimester PTLG003  8087
##  7 3rd trimester PTLG008  7953
##  8 2st trimester PTLG018  7781
##  9 3rd trimester PTLG018  7620
## 10 2st trimester PTLG004  7579
## # … with 38 more rows
…
